Final Project
…
In this section, we want to do some exploratory data analysis based on our curated and styled dataset from above. Lets address some of the questions we asked earlier in the project:

How does the genre of a movie impact its revenue earnings in the box office?

In order to address this question, we need to filter our dataframe by genre and calculate the Average Revenue scores for each one. Once we have done this for all the genres in our set we add them to a new dataframe, and compare them against one another to identify relationships. The code below does some basic filtering and summarizing techniques to accomplish this.

bar plot of revenue, rating, metascore by genre action,history, adventure, fantasy, comedy, romance, crime western

relationsihp between revenue and metascore vs rating

imdb_clean<- imdb_tab%>% 
  drop_na(`Revenue (Millions)`, Rating, Metascore)
imdb_clean

## # A tibble: 838 x 22
##     Rank Title Genre Description Director Actors  Year `Runtime (Minut~
##    <dbl> <chr> <chr> <chr>       <chr>    <chr>  <dbl>            <dbl>
##  1     1 Guar~ Acti~ A group of~ James G~ Chris~  2014              121
##  2     2 Prom~ Adve~ Following ~ Ridley ~ Noomi~  2012              124
##  3     3 Split Horr~ Three girl~ M. Nigh~ James~  2016              117
##  4     4 Sing  Anim~ In a city ~ Christo~ Matth~  2016              108
##  5     5 Suic~ Acti~ A secret g~ David A~ Will ~  2016              123
##  6     6 The ~ Acti~ European m~ Yimou Z~ Matt ~  2016              103
##  7     7 La L~ Come~ A jazz pia~ Damien ~ Ryan ~  2016              128
##  8     9 The ~ Acti~ A true-lif~ James G~ Charl~  2016              141
##  9    10 Pass~ Adve~ A spacecra~ Morten ~ Jenni~  2016              116
## 10    11 Fant~ Adve~ The advent~ David Y~ Eddie~  2016              133
## # ... with 828 more rows, and 14 more variables: Rating <dbl>,
## #   Votes <dbl>, `Revenue (Millions)` <dbl>, Metascore <dbl>,
## #   Num_Genres <dbl>, action <lgl>, adventure <lgl>, fantasy <lgl>,
## #   comedy <lgl>, romance <lgl>, history <lgl>, animation <lgl>,
## #   crime <lgl>, western <lgl>
…
Insight: Once again the metascore averages of fairly close for each genre, indicating that this did not have a large effect on the revenue differences we saw in the first bar graph. One notable insight on the difference between the rating graph and metascore graph is that critics consistently grade lower than the general population. The average rating score for every genre fell above a 6, while the majority of average metascores fell under 60 (equivalent to a 6 for rating system).

Various forms of plots

An important factor to consider when doing exploratory data analysis is the various plots available to us and how we use them. Suppose we want to take a look at how revenue for movies as changed over time.

The first thing we need to do is clean up our data. This is a good example of our data pipeline not going perfectly in order. If we want to summarize the mean of revenue spent per year, we have to do something with the entities for which revenue is not available (marked by NA). There are several ways to clean these values, such as predicting their value, filling them in with the mean of our available values, or dropping those entities all together. In our example, we simply dropped those entities because we have enough data to do so without drastically changing our results.

Now we can address our question. Are people spending more or less money on movies than they were several years ago? We can attempt to answer this question by creating a simple scatter plot of average movie revenue generated each year, including a line of best fit. This graph is provided below:

imdb_tab_rev<- imdb_tab%>% 
  drop_na(`Revenue (Millions)`, Year)
imdb_tab_rev

## # A tibble: 872 x 22
##     Rank Title Genre Description Director Actors  Year `Runtime (Minut~
##    <dbl> <chr> <chr> <chr>       <chr>    <chr>  <dbl>            <dbl>
##  1     1 Guar~ Acti~ A group of~ James G~ Chris~  2014              121
##  2     2 Prom~ Adve~ Following ~ Ridley ~ Noomi~  2012              124
##  3     3 Split Horr~ Three girl~ M. Nigh~ James~  2016              117
##  4     4 Sing  Anim~ In a city ~ Christo~ Matth~  2016              108
##  5     5 Suic~ Acti~ A secret g~ David A~ Will ~  2016              123
##  6     6 The ~ Acti~ European m~ Yimou Z~ Matt ~  2016              103
##  7     7 La L~ Come~ A jazz pia~ Damien ~ Ryan ~  2016              128
##  8     9 The ~ Acti~ A true-lif~ James G~ Charl~  2016              141
##  9    10 Pass~ Adve~ A spacecra~ Morten ~ Jenni~  2016              116
## 10    11 Fant~ Adve~ The advent~ David Y~ Eddie~  2016              133
## # ... with 862 more rows, and 14 more variables: Rating <dbl>,
## #   Votes <dbl>, `Revenue (Millions)` <dbl>, Metascore <dbl>,
## #   Num_Genres <dbl>, action <lgl>, adventure <lgl>, fantasy <lgl>,
## #   comedy <lgl>, romance <lgl>, history <lgl>, animation <lgl>,
## #   crime <lgl>, western <lgl>
…
imdb_rated

## # A tibble: 936 x 23
##     Rank Title Genre Description Director Actors  Year `Runtime (Minut~
##    <dbl> <chr> <chr> <chr>       <chr>    <chr>  <dbl>            <dbl>
##  1     1 Guar~ Acti~ A group of~ James G~ Chris~  2014              121
##  2     2 Prom~ Adve~ Following ~ Ridley ~ Noomi~  2012              124
##  3     3 Split Horr~ Three girl~ M. Nigh~ James~  2016              117
##  4     4 Sing  Anim~ In a city ~ Christo~ Matth~  2016              108
##  5     5 Suic~ Acti~ A secret g~ David A~ Will ~  2016              123
##  6     6 The ~ Acti~ European m~ Yimou Z~ Matt ~  2016              103
##  7     7 La L~ Come~ A jazz pia~ Damien ~ Ryan ~  2016              128
##  8     8 Mind~ Come~ "A has-bee~ Sean Fo~ Essie~  2016               89
##  9     9 The ~ Acti~ A true-lif~ James G~ Charl~  2016              141
## 10    10 Pass~ Adve~ A spacecra~ Morten ~ Jenni~  2016              116
## # ... with 926 more rows, and 15 more variables: Rating <dbl>,
## #   Votes <dbl>, `Revenue (Millions)` <dbl>, Metascore <dbl>,
## #   Num_Genres <dbl>, action <lgl>, adventure <lgl>, fantasy <lgl>,
## #   comedy <lgl>, romance <lgl>, history <lgl>, animation <lgl>,
## #   crime <lgl>, western <lgl>, Rating_rounded <chr>

Metascore increases by roughly 10.562 by every point the rating increases

p value represents statistically significant relationship

imdb_rated

## # A tibble: 936 x 23
##     Rank Title Genre Description Director Actors  Year `Runtime (Minut~
##    <dbl> <chr> <chr> <chr>       <chr>    <chr>  <dbl>            <dbl>
##  1     1 Guar~ Acti~ A group of~ James G~ Chris~  2014              121
##  2     2 Prom~ Adve~ Following ~ Ridley ~ Noomi~  2012              124
##  3     3 Split Horr~ Three girl~ M. Nigh~ James~  2016              117
##  4     4 Sing  Anim~ In a city ~ Christo~ Matth~  2016              108
##  5     5 Suic~ Acti~ A secret g~ David A~ Will ~  2016              123
##  6     6 The ~ Acti~ European m~ Yimou Z~ Matt ~  2016              103
##  7     7 La L~ Come~ A jazz pia~ Damien ~ Ryan ~  2016              128
##  8     8 Mind~ Come~ "A has-bee~ Sean Fo~ Essie~  2016               89
##  9     9 The ~ Acti~ A true-lif~ James G~ Charl~  2016              141
## 10    10 Pass~ Adve~ A spacecra~ Morten ~ Jenni~  2016              116
## # ... with 926 more rows, and 15 more variables: Rating <dbl>,
## #   Votes <dbl>, `Revenue (Millions)` <dbl>, Metascore <dbl>,
## #   Num_Genres <dbl>, action <lgl>, adventure <lgl>, fantasy <lgl>,
## #   comedy <lgl>, romance <lgl>, history <lgl>, animation <lgl>,
## #   crime <lgl>, western <lgl>, Rating_rounded <chr>
…
imdb_rated<- imdb_rated%>% 
  drop_na(`Revenue (Millions)`)

imdb_rated$revenue_level <-ifelse(imdb_rated$`Revenue (Millions)` > 100,
                   yes = "high revenue", no = "low revenue")

imdb_rated$revenue_level <-ifelse(imdb_rated$revenue_level == "low revenue" & imdb_rated$`Revenue (Millions)` > 40,
                   yes = "mid revenue", imdb_rated$revenue_level )

imdb_rated

## # A tibble: 838 x 24
##     Rank Title Genre Description Director Actors  Year `Runtime (Minut~
##    <dbl> <chr> <chr> <chr>       <chr>    <chr>  <dbl>            <dbl>
##  1     1 Guar~ Acti~ A group of~ James G~ Chris~  2014              121
##  2     2 Prom~ Adve~ Following ~ Ridley ~ Noomi~  2012              124
##  3     3 Split Horr~ Three girl~ M. Nigh~ James~  2016              117
##  4     4 Sing  Anim~ In a city ~ Christo~ Matth~  2016              108
##  5     5 Suic~ Acti~ A secret g~ David A~ Will ~  2016              123
##  6     6 The ~ Acti~ European m~ Yimou Z~ Matt ~  2016              103
##  7     7 La L~ Come~ A jazz pia~ Damien ~ Ryan ~  2016              128
##  8     9 The ~ Acti~ A true-lif~ James G~ Charl~  2016              141
##  9    10 Pass~ Adve~ A spacecra~ Morten ~ Jenni~  2016              116
## 10    11 Fant~ Adve~ The advent~ David Y~ Eddie~  2016              133
## # ... with 828 more rows, and 16 more variables: Rating <dbl>,
## #   Votes <dbl>, `Revenue (Millions)` <dbl>, Metascore <dbl>,
## #   Num_Genres <dbl>, action <lgl>, adventure <lgl>, fantasy <lgl>,
## #   comedy <lgl>, romance <lgl>, history <lgl>, animation <lgl>,
## #   crime <lgl>, western <lgl>, Rating_rounded <int>, revenue_level <chr>
…
